John Doe

one

one
two
three
four
five
six
seven
eight
nine
ten
eleven
twelve
thirteen
fourteen
fifteen
sixteen
seventeen
eighteen
nineteen
twenty

Jeffrey Dahmer

Zodiac Killer
Boston Strangler

John Adams

Jay-Z

Ween

Death Grips
The Beach Boys
Bjork

Bernie Sanders

Alvin

Pikachu
